{
	"info": {
		"_postman_id": "7c809a77-20e6-4485-9802-24f198b78f4d",
		"name": "Projet",
		"schema": "https://schema.getpostman.com/json/collection/v2.1.0/collection.json"
	},
	"item": [
		{
			"name": "Users",
			"item": [
				{
					"name": "Login",
					"event": [
						{
							"listen": "test",
							"script": {
								"exec": [
									"let jsonData = JSON.parse(responseBody)\r",
									"pm.environment.set(\"token\",jsonData.token)\r",
									"\r",
									"pm.test(\"Status code is 200\", function () {\r",
									"  pm.response.to.have.status(200);\r",
									"});"
								],
								"type": "text/javascript"
							}
						}
					],
					"request": {
						"method": "POST",
						"header": [],
						"body": {
							"mode": "raw",
							"raw": "{\r\n  \"password\": \"test\",\r\n  \"username\": \"test1\"\r\n}",
							"options": {
								"raw": {
									"language": "json"
								}
							}
						},
						"url": {
							"raw": "{{ip_api_projet}}/api/authentication_token",
							"host": [
								"{{ip_api_projet}}"
							],
							"path": [
								"api",
								"authentication_token"
							]
						}
					},
					"response": []
				},
				{
					"name": "New user",
					"event": [
						{
							"listen": "test",
							"script": {
								"exec": [
									"pm.test(\"Status code is 201\", function () {\r",
									"  pm.response.to.have.status(201);\r",
									"});"
								],
								"type": "text/javascript"
							}
						}
					],
					"request": {
						"auth": {
							"type": "bearer",
							"bearer": [
								{
									"key": "token",
									"value": "{{token}}",
									"type": "string"
								}
							]
						},
						"method": "POST",
						"header": [],
						"body": {
							"mode": "raw",
							"raw": "{\r\n  \"email\": \"test{{$timestamp}}@gmail.com\",\r\n  \"password\": \"tesst\",\r\n  \"username\": \"test{{$timestamp}}\"\r\n}",
							"options": {
								"raw": {
									"language": "json"
								}
							}
						},
						"url": {
							"raw": "{{ip_api_projet}}/api/users",
							"host": [
								"{{ip_api_projet}}"
							],
							"path": [
								"api",
								"users"
							]
						}
					},
					"response": []
				},
				{
					"name": "All users",
					"event": [
						{
							"listen": "test",
							"script": {
								"exec": [
									"pm.test(\"Status code is 200\", function () {\r",
									"  pm.response.to.have.status(200);\r",
									"});"
								],
								"type": "text/javascript"
							}
						}
					],
					"request": {
						"method": "GET",
						"header": [],
						"url": {
							"raw": "{{ip_api_projet}}/api/users.json",
							"host": [
								"{{ip_api_projet}}"
							],
							"path": [
								"api",
								"users.json"
							]
						}
					},
					"response": []
				}
			]
		},
		{
			"name": "Ingredients",
			"item": [
				{
					"name": "All ingredients",
					"event": [
						{
							"listen": "test",
							"script": {
								"exec": [
									"pm.test(\"Status code is 200\", function () {\r",
									"  pm.response.to.have.status(200);\r",
									"});"
								],
								"type": "text/javascript"
							}
						}
					],
					"request": {
						"method": "GET",
						"header": [],
						"url": {
							"raw": "{{ip_api_projet}}/api/ingredients.json",
							"host": [
								"{{ip_api_projet}}"
							],
							"path": [
								"api",
								"ingredients.json"
							]
						}
					},
					"response": []
				}
			],
			"event": [
				{
					"listen": "prerequest",
					"script": {
						"type": "text/javascript",
						"exec": [
							""
						]
					}
				},
				{
					"listen": "test",
					"script": {
						"type": "text/javascript",
						"exec": [
							""
						]
					}
				}
			]
		},
		{
			"name": "IngredientQuantity",
			"item": [
				{
					"name": "All ingredients",
					"event": [
						{
							"listen": "test",
							"script": {
								"exec": [
									"pm.test(\"Status code is 200\", function () {\r",
									"  pm.response.to.have.status(200);\r",
									"});"
								],
								"type": "text/javascript"
							}
						}
					],
					"request": {
						"method": "GET",
						"header": [],
						"url": {
							"raw": "{{ip_api_projet}}/api/ingredient_quantities.json",
							"host": [
								"{{ip_api_projet}}"
							],
							"path": [
								"api",
								"ingredient_quantities.json"
							]
						}
					},
					"response": []
				}
			],
			"event": [
				{
					"listen": "prerequest",
					"script": {
						"type": "text/javascript",
						"exec": [
							""
						]
					}
				},
				{
					"listen": "test",
					"script": {
						"type": "text/javascript",
						"exec": [
							""
						]
					}
				}
			]
		},
		{
			"name": "Macros",
			"item": [
				{
					"name": "All macros",
					"event": [
						{
							"listen": "test",
							"script": {
								"exec": [
									"pm.test(\"Status code is 200\", function () {\r",
									"  pm.response.to.have.status(200);\r",
									"});"
								],
								"type": "text/javascript"
							}
						}
					],
					"request": {
						"method": "GET",
						"header": [],
						"url": {
							"raw": "{{ip_api_projet}}/api/macros.json",
							"host": [
								"{{ip_api_projet}}"
							],
							"path": [
								"api",
								"macros.json"
							]
						}
					},
					"response": []
				}
			]
		},
		{
			"name": "Menus",
			"item": [
				{
					"name": "All menus",
					"event": [
						{
							"listen": "test",
							"script": {
								"exec": [
									"pm.test(\"Status code is 200\", function () {\r",
									"  pm.response.to.have.status(200);\r",
									"});"
								],
								"type": "text/javascript"
							}
						}
					],
					"request": {
						"method": "GET",
						"header": [],
						"url": {
							"raw": "{{ip_api_projet}}/api/menus.json",
							"host": [
								"{{ip_api_projet}}"
							],
							"path": [
								"api",
								"menus.json"
							]
						}
					},
					"response": []
				},
				{
					"name": "Active menus",
					"event": [
						{
							"listen": "test",
							"script": {
								"exec": [
									"pm.test(\"Status code is 200\", function () {\r",
									"  pm.response.to.have.status(200);\r",
									"});"
								],
								"type": "text/javascript"
							}
						}
					],
					"request": {
						"method": "GET",
						"header": [],
						"url": {
							"raw": "{{ip_api_projet}}/api/menus.json?isActive=true",
							"host": [
								"{{ip_api_projet}}"
							],
							"path": [
								"api",
								"menus.json"
							],
							"query": [
								{
									"key": "isActive",
									"value": "true"
								}
							]
						}
					},
					"response": []
				},
				{
					"name": "Disabled menus",
					"event": [
						{
							"listen": "test",
							"script": {
								"exec": [
									"pm.test(\"Status code is 200\", function () {\r",
									"  pm.response.to.have.status(200);\r",
									"});"
								],
								"type": "text/javascript"
							}
						}
					],
					"request": {
						"method": "GET",
						"header": [],
						"url": {
							"raw": "{{ip_api_projet}}/api/menus.json?isActive=false",
							"host": [
								"{{ip_api_projet}}"
							],
							"path": [
								"api",
								"menus.json"
							],
							"query": [
								{
									"key": "isActive",
									"value": "false"
								}
							]
						}
					},
					"response": []
				}
			]
		},
		{
			"name": "Food",
			"item": [
				{
					"name": "All food",
					"event": [
						{
							"listen": "test",
							"script": {
								"exec": [
									"pm.test(\"Status code is 200\", function () {\r",
									"  pm.response.to.have.status(200);\r",
									"});"
								],
								"type": "text/javascript"
							}
						}
					],
					"request": {
						"method": "GET",
						"header": [],
						"url": {
							"raw": "{{ip_api_projet}}/api/food.json",
							"host": [
								"{{ip_api_projet}}"
							],
							"path": [
								"api",
								"food.json"
							]
						}
					},
					"response": []
				}
			]
		},
		{
			"name": "Restaurant tables",
			"item": [
				{
					"name": "All restaurent tables",
					"event": [
						{
							"listen": "test",
							"script": {
								"exec": [
									"pm.test(\"Status code is 200\", function () {\r",
									"  pm.response.to.have.status(200);\r",
									"});"
								],
								"type": "text/javascript"
							}
						}
					],
					"request": {
						"method": "GET",
						"header": [],
						"url": {
							"raw": "{{ip_api_projet}}/api/restaurant_tables.json",
							"host": [
								"{{ip_api_projet}}"
							],
							"path": [
								"api",
								"restaurant_tables.json"
							]
						}
					},
					"response": []
				},
				{
					"name": "Active reservation tables",
					"event": [
						{
							"listen": "test",
							"script": {
								"exec": [
									"pm.test(\"Status code is 200\", function () {\r",
									"  pm.response.to.have.status(200);\r",
									"});"
								],
								"type": "text/javascript"
							}
						}
					],
					"request": {
						"method": "GET",
						"header": [],
						"url": {
							"raw": "{{ip_api_projet}}/api/restaurant_tables.json?isActive=true",
							"host": [
								"{{ip_api_projet}}"
							],
							"path": [
								"api",
								"restaurant_tables.json"
							],
							"query": [
								{
									"key": "isActive",
									"value": "true"
								}
							]
						}
					},
					"response": []
				},
				{
					"name": "Active reservation tables",
					"event": [
						{
							"listen": "test",
							"script": {
								"exec": [
									"pm.test(\"Status code is 200\", function () {\r",
									"  pm.response.to.have.status(200);\r",
									"});"
								],
								"type": "text/javascript"
							}
						}
					],
					"request": {
						"method": "GET",
						"header": [],
						"url": {
							"raw": "{{ip_api_projet}}/api/restaurant_tables.json?isActive=false",
							"host": [
								"{{ip_api_projet}}"
							],
							"path": [
								"api",
								"restaurant_tables.json"
							],
							"query": [
								{
									"key": "isActive",
									"value": "false"
								}
							]
						}
					},
					"response": []
				}
			]
		},
		{
			"name": "Reservations",
			"item": [
				{
					"name": "All reservations",
					"event": [
						{
							"listen": "test",
							"script": {
								"exec": [
									"pm.test(\"Status code is 200\", function () {\r",
									"  pm.response.to.have.status(200);\r",
									"});"
								],
								"type": "text/javascript"
							}
						}
					],
					"request": {
						"method": "GET",
						"header": [],
						"url": {
							"raw": "{{ip_api_projet}}/api/reservations.json",
							"host": [
								"{{ip_api_projet}}"
							],
							"path": [
								"api",
								"reservations.json"
							]
						}
					},
					"response": []
				},
				{
					"name": "Reservations between dates",
					"event": [
						{
							"listen": "test",
							"script": {
								"exec": [
									"pm.test(\"Status code is 200\", function () {\r",
									"  pm.response.to.have.status(200);\r",
									"});"
								],
								"type": "text/javascript"
							}
						}
					],
					"request": {
						"method": "GET",
						"header": [],
						"url": {
							"raw": "{{ip_api_projet}}/api/reservations.json?name=gillot&restaurantTable.id=30&startDate[before]=Thu%20Jan%2020%202022%2017:44:46%20GMT+0100%20(heure%20normale%20d%E2%80%99Europe%20centrale)&?endDate[after]Thu%20Jan%2020%202022%2017:14:46%20GMT+0100%20(heure%20normale%20d%E2%80%99Europe%20centrale)",
							"host": [
								"{{ip_api_projet}}"
							],
							"path": [
								"api",
								"reservations.json"
							],
							"query": [
								{
									"key": "name",
									"value": "gillot"
								},
								{
									"key": "restaurantTable.id",
									"value": "30"
								},
								{
									"key": "startDate[before]",
									"value": "Thu%20Jan%2020%202022%2017:44:46%20GMT+0100%20(heure%20normale%20d%E2%80%99Europe%20centrale)"
								},
								{
									"key": "?endDate[after]Thu%20Jan%2020%202022%2017:14:46%20GMT+0100%20(heure%20normale%20d%E2%80%99Europe%20centrale)",
									"value": null
								}
							]
						}
					},
					"response": []
				}
			]
		},
		{
			"name": "Orders",
			"item": [
				{
					"name": "All orders",
					"event": [
						{
							"listen": "test",
							"script": {
								"exec": [
									"pm.test(\"Status code is 200\", function () {\r",
									"  pm.response.to.have.status(200);\r",
									"});"
								],
								"type": "text/javascript"
							}
						}
					],
					"request": {
						"method": "GET",
						"header": [],
						"url": {
							"raw": "{{ip_api_projet}}/api/orders.json",
							"host": [
								"{{ip_api_projet}}"
							],
							"path": [
								"api",
								"orders.json"
							]
						}
					},
					"response": []
				},
				{
					"name": "Orders of specific reservation",
					"event": [
						{
							"listen": "test",
							"script": {
								"exec": [
									"pm.test(\"Status code is 200\", function () {\r",
									"  pm.response.to.have.status(200);\r",
									"});"
								],
								"type": "text/javascript"
							}
						}
					],
					"request": {
						"method": "GET",
						"header": [],
						"url": {
							"raw": "{{ip_api_projet}}/api/orders.json?reservation.id=21",
							"host": [
								"{{ip_api_projet}}"
							],
							"path": [
								"api",
								"orders.json"
							],
							"query": [
								{
									"key": "reservation.id",
									"value": "21"
								}
							]
						}
					},
					"response": []
				},
				{
					"name": "Order menu",
					"request": {
						"method": "POST",
						"header": [],
						"body": {
							"mode": "raw",
							"raw": "{\r\n    \"reservation\": \"/api/reservations/1\",\r\n    \"menu\": \"/api/menus/2\",\r\n    \"food\": null,\r\n    \"comment\": null\r\n}",
							"options": {
								"raw": {
									"language": "json"
								}
							}
						},
						"url": {
							"raw": "{{ip_api_projet}}/api/orders",
							"host": [
								"{{ip_api_projet}}"
							],
							"path": [
								"api",
								"orders"
							]
						}
					},
					"response": []
				},
				{
					"name": "Order food",
					"request": {
						"method": "POST",
						"header": [],
						"body": {
							"mode": "raw",
							"raw": "{\r\n    \"reservation\": \"/api/reservations/1\",\r\n    \"menu\": null,\r\n    \"food\": \"/api/food/1\",\r\n    \"comment\": null\r\n}",
							"options": {
								"raw": {
									"language": "json"
								}
							}
						},
						"url": {
							"raw": "{{ip_api_projet}}/api/orders",
							"host": [
								"{{ip_api_projet}}"
							],
							"path": [
								"api",
								"orders"
							]
						}
					},
					"response": []
				}
			]
		}
	]
}